[
    {
        "name":"primaryAction",
        "input":{
            "controller":"mouse",
            "action":"down"
        }
    },
    {
        "name":"scroll",
        "input":{
            "controller":"mouse",
            "action":"wheel"
        }
    },
    {
        "name":"moveForward",
        "input":{
            "controller":"keyboard",
            "action":"down",
            "input":"ArrowUp"
        }
    },
    {
        "name":"moveForward",
        "input":{
            "controller":"keyboard",
            "action":"down",
            "input":"z"
        }
    },
    {
        "name":"moveBackward",
        "input":{
            "controller":"keyboard",
            "action":"down",
            "input":"ArrowDown"
        }
    },
    {
        "name":"moveBackward",
        "input":{
            "controller":"keyboard",
            "action":"down",
            "input":"s"
        }
    },
    {
        "name":"rotateLeft",
        "input":{
            "controller":"keyboard",
            "action":"down",
            "input":"a"
        }
    },
    {
        "name":"rotateRight",
        "input":{
            "controller":"keyboard",
            "action":"down",
            "input":"e"
        }
    },
    {
        "name":"moveLeft",
        "input":{
            "controller":"keyboard",
            "action":"down",
            "input":"ArrowLeft"
        }
    },
    {
        "name":"moveLeft",
        "input":{
            "controller":"keyboard",
            "action":"down",
            "input":"q"
        }
    },
    {
        "name":"moveRight",
        "input":{
            "controller":"keyboard",
            "action":"down",
            "input":"ArrowRight"
        }
    },
    {
        "name":"moveRight",
        "input":{
            "controller":"keyboard",
            "action":"down",
            "input":"d"
        }
    },
    {
        "name":"moveTop",
        "input":{
            "controller":"keyboard",
            "action":"down",
            "input":" "
        }
    },
    {
        "name":"moveBottom",
        "input":{
            "controller":"keyboard",
            "action":"down",
            "input":"Shift"
        }
    },
    {
        "name":"moveLeft",
        "input":{
            "controller":"keyboard",
            "action":"down",
            "input":"ArrowLeft"
        }
    }
]